Relatório sobre análises feitas em um conjunto de dados de uma estação de tratamento de água
…
Feita nossa transformação de valores, vamos omitir então os dados de dias em que nossas medições estão incompletas.

#Omitindo os NA's.
data_est <- na.omit(data_estacao)
data_est

## # A tibble: 380 x 39
##    Data  `Q-E` `ZN-E` `PH-E` `DBO-E` `DQO-E` `SS-E` `SSV-E` `SED-E`
##    <fct> <int>  <dbl>  <dbl>   <int>   <int>  <int>   <dbl>   <dbl>
##  1 D-5/~ 35023    3.5    7.9     205     588    192    65.6     4.5
##  2 D-11~ 29156    2.5    7.7     206     451    194    69.1     4.5
##  3 D-12~ 39246    2      7.8     172     506    200    69       5  
##  4 D-13~ 42393    0.7    7.9     189     478    230    67       5.5
##  5 D-18~ 40923    3.5    7.6     146     329    188    57.4     2.5
##  6 D-19~ 43830    1.5    7.8     177     512    214    58.9     5.5
##  7 D-20~ 39165    1.2    7.4     250     447    252    61.1     7  
##  8 D-22~ 37419    1.2    7.6     219     446    222    61.3     5.5
##  9 D-23~ 40983    3      7.6     182     431    214    57       7  
## 10 D-25~ 42217    8.5    7.5     138     333    240    55       3.8
## # ... with 370 more rows, and 30 more variables: `COND-E` <int>,
## #   `PH-P` <dbl>, `DBO-P` <int>, `SS-P` <int>, `SSV-P` <dbl>,
## #   `SED-P` <dbl>, `COND-P` <int>, `PH-D` <dbl>, `DBO-D` <int>,
## #   `DQO-D` <int>, `SS-D` <int>, `SSV-D` <dbl>, `SED-D` <dbl>,
## #   `COND-D` <int>, `PH-S` <dbl>, `DBO-S` <int>, `DQO-S` <int>,
## #   `SS-S` <int>, `SSV-S` <dbl>, `SED-S` <dbl>, `COND-S` <int>,
## #   `RD-DBO-P` <dbl>, `RD-SS-P` <dbl>, `RD-SED-P` <dbl>, `RD-DBO-S` <dbl>,
## #   `RD-DQO-S` <dbl>, `RD-DBO-G` <dbl>, `RD-DQO-G` <dbl>, `RD-SS-G` <dbl>,
## #   `RD-SED-G` <dbl>
…
Análise Fatorial

Na Análise Fatorial, nosso intuito é conseguir identificar como as variáveis se relacionam, separando-as em grupos conhecidos como fatores, e quanto elas contribuem para esse fator em questão.

Exploratória

Na parte exploratória vamos gerar um modelo a partir dos nossos dados existentes.

Temos novamente mais um estágio de tratamento de dados, ele se faz necessário para não atrapalhar ou corromper o conjunto de dados original.

data_est_num <- data_est[,-1]
data_est_num

## # A tibble: 380 x 38
##    `Q-E` `ZN-E` `PH-E` `DBO-E` `DQO-E` `SS-E` `SSV-E` `SED-E` `COND-E`
##    <int>  <dbl>  <dbl>   <int>   <int>  <int>   <dbl>   <dbl>    <int>
##  1 35023    3.5    7.9     205     588    192    65.6     4.5     2430
##  2 29156    2.5    7.7     206     451    194    69.1     4.5     1249
##  3 39246    2      7.8     172     506    200    69       5       1865
##  4 42393    0.7    7.9     189     478    230    67       5.5     1410
##  5 40923    3.5    7.6     146     329    188    57.4     2.5     1300
##  6 43830    1.5    7.8     177     512    214    58.9     5.5     1605
##  7 39165    1.2    7.4     250     447    252    61.1     7       1533
##  8 37419    1.2    7.6     219     446    222    61.3     5.5     1600
##  9 40983    3      7.6     182     431    214    57       7       1591
## 10 42217    8.5    7.5     138     333    240    55       3.8     1087
## # ... with 370 more rows, and 29 more variables: `PH-P` <dbl>,
## #   `DBO-P` <int>, `SS-P` <int>, `SSV-P` <dbl>, `SED-P` <dbl>,
## #   `COND-P` <int>, `PH-D` <dbl>, `DBO-D` <int>, `DQO-D` <int>,
## #   `SS-D` <int>, `SSV-D` <dbl>, `SED-D` <dbl>, `COND-D` <int>,
## #   `PH-S` <dbl>, `DBO-S` <int>, `DQO-S` <int>, `SS-S` <int>,
## #   `SSV-S` <dbl>, `SED-S` <dbl>, `COND-S` <int>, `RD-DBO-P` <dbl>,
## #   `RD-SS-P` <dbl>, `RD-SED-P` <dbl>, `RD-DBO-S` <dbl>, `RD-DQO-S` <dbl>,
## #   `RD-DBO-G` <dbl>, `RD-DQO-G` <dbl>, `RD-SS-G` <dbl>, `RD-SED-G` <dbl>
…
